{
	"authors": [
		"Grayson Gratop"
	],
	"copyright": "Copyright © 2020, Grayson Gratop",
	"dependencies": {
		"dscord": "1.0.0-beta.1"
	},
	"description": "A Discord bot.",
	"license": "free-beer",
	"name": "d-bot"
}